{
  "username": "{{ user.username }}",
  "name": "{{ user.username}}",
  "first_name": "{{ user.firstName }}",
  "last_name": "{{ user.lastName }}",
  "email": "{{ user.email }}",
  "url": "",
  "description": "",
  "locale": "en_US",
  "nickname": "{{ user.username }}",
  "roles": [
    "{{ user.role }}"
  ],
  "password": "{{ password }}"
}